{"traces": {"full": ["83.2", "0.0"]}, "rev": "77263"}
{"traces": {"full": ["86.9", "0.0"]}, "rev": "77213"}
{"traces": {"full": ["133.2", "0.0"]}, "rev": "77139"}
{"traces": {"full": ["85.4", "0.0"]}, "rev": "77117"}
{"traces": {"full": ["84.2", "0.0"]}, "rev": "77097"}
{"traces": {"full": ["85.9", "0.0"]}, "rev": "77073"}
{"traces": {"full": ["85.8", "0.0"]}, "rev": "77066"}
{"traces": {"full": ["86.1", "0.0"]}, "rev": "77045"}
{"traces": {"full": ["85.6", "0.0"]}, "rev": "77001"}
{"traces": {"full": ["95.7", "0.0"]}, "rev": "76920"}
{"traces": {"full": ["89.2", "0.0"]}, "rev": "76894"}
{"traces": {"full": ["87.4", "0.0"]}, "rev": "76843"}
{"traces": {"full": ["85.8", "0.0"]}, "rev": "76746"}
{"traces": {"full": ["105.5", "0.0"]}, "rev": "76546"}
{"traces": {"full": ["84.8", "0.0"]}, "rev": "76513"}
{"traces": {"full": ["87.4", "0.0"]}, "rev": "76466"}
{"traces": {"full": ["86.5", "0.0"]}, "rev": "76363"}
{"traces": {"full": ["88.6", "0.0"]}, "rev": "76218"}
{"traces": {"full": ["83.9", "0.0"]}, "rev": "76201"}
{"traces": {"full": ["87.1", "0.0"]}, "rev": "76195"}
{"traces": {"full": ["84.8", "0.0"]}, "rev": "76183"}
{"traces": {"full": ["83.6", "0.0"]}, "rev": "76171"}
{"traces": {"full": ["83.9", "0.0"]}, "rev": "76164"}
{"traces": {"full": ["88.3", "0.0"]}, "rev": "76155"}
{"traces": {"full": ["83.2", "0.0"]}, "rev": "76058"}
{"traces": {"full": ["96.9", "0.0"]}, "rev": "76037"}
{"traces": {"full": ["83.9", "0.0"]}, "rev": "76000"}
{"traces": {"full": ["86.8", "0.0"]}, "rev": "75892"}
{"traces": {"full": ["87.3", "0.0"]}, "rev": "75858"}
{"traces": {"full": ["84.5", "0.0"]}, "rev": "75832"}
{"traces": {"full": ["87.9", "0.0"]}, "rev": "75753"}
{"traces": {"full": ["87.5", "0.0"]}, "rev": "75728"}
{"traces": {"full": ["84.4", "0.0"]}, "rev": "75685"}
{"traces": {"full": ["96.9", "0.0"]}, "rev": "75598"}
{"traces": {"full": ["88.5", "0.0"]}, "rev": "75576"}
{"traces": {"full": ["86.9", "0.0"]}, "rev": "75566"}
{"traces": {"full": ["87.4", "0.0"]}, "rev": "75556"}
{"traces": {"full": ["87.1", "0.0"]}, "rev": "75533"}
{"traces": {"full": ["85.0", "0.0"]}, "rev": "75529"}
{"traces": {"full": ["87.1", "0.0"]}, "rev": "75525"}
{"traces": {"full": ["86.0", "0.0"]}, "rev": "75517"}
{"traces": {"full": ["87.5", "0.0"]}, "rev": "75510"}
{"traces": {"full": ["85.4", "0.0"]}, "rev": "75498"}
{"traces": {"full": ["88.4", "0.0"]}, "rev": "75491"}
{"traces": {"full": ["88.3", "0.0"]}, "rev": "75476"}
{"traces": {"full": ["86.3", "0.0"]}, "rev": "75394"}
{"traces": {"full": ["87.1", "0.0"]}, "rev": "75370"}
{"traces": {"full": ["87.3", "0.0"]}, "rev": "75332"}
{"traces": {"full": ["94.3", "0.0"]}, "rev": "75276"}
{"traces": {"full": ["87.5", "0.0"]}, "rev": "75239"}
{"traces": {"full": ["86.3", "0.0"]}, "rev": "75207"}
{"traces": {"full": ["87.0", "0.0"]}, "rev": "75124"}
{"traces": {"full": ["85.5", "0.0"]}, "rev": "75079"}
{"traces": {"full": ["84.9", "0.0"]}, "rev": "75031"}
{"traces": {"full": ["86.6", "0.0"]}, "rev": "74949"}
{"traces": {"full": ["82.5", "0.0"]}, "rev": "74926"}
{"traces": {"full": ["85.2", "0.0"]}, "rev": "74821"}
{"traces": {"full": ["86.8", "0.0"]}, "rev": "74789"}
{"traces": {"full": ["86.9", "0.0"]}, "rev": "74775"}
{"traces": {"full": ["85.5", "0.0"]}, "rev": "74757"}
{"traces": {"full": ["89.5", "0.0"]}, "rev": "74741"}
{"traces": {"full": ["86.4", "0.0"]}, "rev": "74733"}
{"traces": {"full": ["85.9", "0.0"]}, "rev": "74729"}
{"traces": {"full": ["88.2", "0.0"]}, "rev": "74703"}
{"traces": {"full": ["84.7", "0.0"]}, "rev": "74609"}
{"traces": {"full": ["86.4", "0.0"]}, "rev": "74577"}
{"traces": {"full": ["87.2", "0.0"]}, "rev": "74531"}
{"traces": {"full": ["84.1", "0.0"]}, "rev": "74439"}
{"traces": {"full": ["87.3", "0.0"]}, "rev": "74413"}
{"traces": {"full": ["91.9", "0.0"]}, "rev": "74386"}
{"traces": {"full": ["87.8", "0.0"]}, "rev": "74291"}
{"traces": {"full": ["87.3", "0.0"]}, "rev": "74263"}
{"traces": {"full": ["86.4", "0.0"]}, "rev": "74207"}
{"traces": {"full": ["85.4", "0.0"]}, "rev": "74118"}
{"traces": {"full": ["84.4", "0.0"]}, "rev": "74102"}
{"traces": {"full": ["137.7", "0.0"]}, "rev": "74051"}
{"traces": {"full": ["85.3", "0.0"]}, "rev": "73990"}
{"traces": {"full": ["84.8", "0.0"]}, "rev": "73975"}
{"traces": {"full": ["84.2", "0.0"]}, "rev": "73962"}
{"traces": {"full": ["86.8", "0.0"]}, "rev": "73953"}
{"traces": {"full": ["88.0", "0.0"]}, "rev": "73935"}
{"traces": {"full": ["85.5", "0.0"]}, "rev": "73931"}
{"traces": {"full": ["88.5", "0.0"]}, "rev": "73923"}
{"traces": {"full": ["86.0", "0.0"]}, "rev": "73875"}
{"traces": {"full": ["99.2", "0.0"]}, "rev": "73805"}
{"traces": {"full": ["86.3", "0.0"]}, "rev": "73709"}
{"traces": {"full": ["86.5", "0.0"]}, "rev": "73627"}
{"traces": {"full": ["85.5", "0.0"]}, "rev": "73596"}
{"traces": {"full": ["85.9", "0.0"]}, "rev": "73545"}
{"traces": {"full": ["87.4", "0.0"]}, "rev": "73460"}
{"traces": {"full": ["86.6", "0.0"]}, "rev": "73434"}
{"traces": {"full": ["86.2", "0.0"]}, "rev": "73379"}
{"traces": {"full": ["84.8", "0.0"]}, "rev": "73290"}
{"traces": {"full": ["85.2", "0.0"]}, "rev": "73233"}
{"traces": {"full": ["83.8", "0.0"]}, "rev": "73154"}
{"traces": {"full": ["85.7", "0.0"]}, "rev": "73129"}
{"traces": {"full": ["85.0", "0.0"]}, "rev": "73122"}
{"traces": {"full": ["86.1", "0.0"]}, "rev": "73109"}
{"traces": {"full": ["84.8", "0.0"]}, "rev": "73101"}
{"traces": {"full": ["85.9", "0.0"]}, "rev": "73098"}
{"traces": {"full": ["85.4", "0.0"]}, "rev": "73089"}
{"traces": {"full": ["87.2", "0.0"]}, "rev": "73083"}
{"traces": {"full": ["84.7", "0.0"]}, "rev": "73047"}
{"traces": {"full": ["89.0", "0.0"]}, "rev": "72965"}
{"traces": {"full": ["84.9", "0.0"]}, "rev": "72940"}
{"traces": {"full": ["84.0", "0.0"]}, "rev": "72905"}
{"traces": {"full": ["99.2", "0.0"]}, "rev": "72803"}
{"traces": {"full": ["82.5", "0.0"]}, "rev": "72774"}
{"traces": {"full": ["86.0", "0.0"]}, "rev": "72732"}
{"traces": {"full": ["84.3", "0.0"]}, "rev": "72640"}
{"traces": {"full": ["84.7", "0.0"]}, "rev": "72618"}
{"traces": {"full": ["86.8", "0.0"]}, "rev": "72570"}
{"traces": {"full": ["86.4", "0.0"]}, "rev": "72494"}
{"traces": {"full": ["84.3", "0.0"]}, "rev": "72475"}
{"traces": {"full": ["86.6", "0.0"]}, "rev": "72424"}
{"traces": {"full": ["88.0", "0.0"]}, "rev": "72336"}
{"traces": {"full": ["86.9", "0.0"]}, "rev": "72317"}
{"traces": {"full": ["84.0", "0.0"]}, "rev": "72307"}
{"traces": {"full": ["85.2", "0.0"]}, "rev": "72300"}
{"traces": {"full": ["85.3", "0.0"]}, "rev": "72292"}
{"traces": {"full": ["85.7", "0.0"]}, "rev": "72285"}
{"traces": {"full": ["86.0", "0.0"]}, "rev": "72276"}
{"traces": {"full": ["86.9", "0.0"]}, "rev": "72271"}
{"traces": {"full": ["86.8", "0.0"]}, "rev": "72238"}
{"traces": {"full": ["129.8", "0.0"]}, "rev": "72141"}
{"traces": {"full": ["86.0", "0.0"]}, "rev": "72055"}
{"traces": {"full": ["130.2", "0.0"]}, "rev": "71958"}
{"traces": {"full": ["84.4", "0.0"]}, "rev": "71929"}
{"traces": {"full": ["87.1", "0.0"]}, "rev": "71883"}
{"traces": {"full": ["83.7", "0.0"]}, "rev": "71799"}
{"traces": {"full": ["85.4", "0.0"]}, "rev": "71771"}
{"traces": {"full": ["85.6", "0.0"]}, "rev": "71728"}
{"traces": {"full": ["89.2", "0.0"]}, "rev": "71662"}
{"traces": {"full": ["142.8", "0.0"]}, "rev": "71633"}
{"traces": {"full": ["84.1", "0.0"]}, "rev": "71607"}
{"traces": {"full": ["85.2", "0.0"]}, "rev": "71598"}
{"traces": {"full": ["83.9", "0.0"]}, "rev": "71587"}
{"traces": {"full": ["87.1", "0.0"]}, "rev": "71570"}
{"traces": {"full": ["84.0", "0.0"]}, "rev": "71257"}
{"traces": {"full": ["93.0", "0.0"]}, "rev": "70874"}
{"traces": {"full": ["96.5", "0.0"]}, "rev": "70854"}
{"traces": {"full": ["85.4", "0.0"]}, "rev": "70850"}
{"traces": {"full": ["86.0", "0.0"]}, "rev": "70344"}
{"traces": {"full": ["85.1", "0.0"]}, "rev": "70313"}
{"traces": {"full": ["85.7", "0.0"]}, "rev": "70301"}
{"traces": {"full": ["85.9", "0.0"]}, "rev": "70287"}
{"traces": {"full": ["84.8", "0.0"]}, "rev": "70263"}
{"traces": {"full": ["85.5", "0.0"]}, "rev": "70254"}
{"traces": {"full": ["86.6", "0.0"]}, "rev": "70245"}
{"traces": {"full": ["86.2", "0.0"]}, "rev": "70223"}
{"traces": {"full": ["88.4", "0.0"]}, "rev": "70217"}
{"traces": {"full": ["84.5", "0.0"]}, "rev": "70202"}
{"traces": {"full": ["87.7", "0.0"]}, "rev": "70194"}
{"traces": {"full": ["86.8", "0.0"]}, "rev": "70187"}
{"traces": {"full": ["86.7", "0.0"]}, "rev": "70187"}
{"traces": {"full": ["89.4", "0.0"]}, "rev": "70178"}
{"traces": {"full": ["84.5", "0.0"]}, "rev": "70173"}
{"traces": {"full": ["86.8", "0.0"]}, "rev": "70166"}
{"traces": {"full": ["89.1", "0.0"]}, "rev": "70161"}
{"traces": {"full": ["86.6", "0.0"]}, "rev": "70158"}
{"traces": {"full": ["86.3", "0.0"]}, "rev": "70143"}
{"traces": {"full": ["86.3", "0.0"]}, "rev": "70118"}
{"traces": {"full": ["84.4", "0.0"]}, "rev": "70059"}
{"traces": {"full": ["87.1", "0.0"]}, "rev": "70039"}
{"traces": {"full": ["86.8", "0.0"]}, "rev": "70003"}
{"traces": {"full": ["84.9", "0.0"]}, "rev": "69951"}
{"traces": {"full": ["85.6", "0.0"]}, "rev": "69937"}
{"traces": {"full": ["89.6", "0.0"]}, "rev": "69898"}
{"traces": {"full": ["87.1", "0.0"]}, "rev": "69832"}
{"traces": {"full": ["87.2", "0.0"]}, "rev": "69810"}
{"traces": {"full": ["86.4", "0.0"]}, "rev": "69769"}
{"traces": {"full": ["86.8", "0.0"]}, "rev": "69712"}
{"traces": {"full": ["86.2", "0.0"]}, "rev": "69697"}
{"traces": {"full": ["84.5", "0.0"]}, "rev": "69688"}
{"traces": {"full": ["86.5", "0.0"]}, "rev": "69682"}
{"traces": {"full": ["88.2", "0.0"]}, "rev": "69677"}
{"traces": {"full": ["87.1", "0.0"]}, "rev": "69663"}
{"traces": {"full": ["84.5", "0.0"]}, "rev": "69648"}
{"traces": {"full": ["89.0", "0.0"]}, "rev": "69638"}
{"traces": {"full": ["107.3", "0.0"]}, "rev": "69590"}
{"traces": {"full": ["86.4", "0.0"]}, "rev": "69547"}
{"traces": {"full": ["87.8", "0.0"]}, "rev": "69523"}
{"traces": {"full": ["88.8", "0.0"]}, "rev": "69488"}
{"traces": {"full": ["85.0", "0.0"]}, "rev": "69409"}
{"traces": {"full": ["85.9", "0.0"]}, "rev": "69383"}
{"traces": {"full": ["85.6", "0.0"]}, "rev": "69263"}
{"traces": {"full": ["87.8", "0.0"]}, "rev": "69235"}
{"traces": {"full": ["85.4", "0.0"]}, "rev": "69196"}
{"traces": {"full": ["82.7", "0.0"]}, "rev": "69134"}
{"traces": {"full": ["87.6", "0.0"]}, "rev": "69107"}
{"traces": {"full": ["87.9", "0.0"]}, "rev": "69073"}
{"traces": {"full": ["84.3", "0.0"]}, "rev": "69001"}
{"traces": {"full": ["85.4", "0.0"]}, "rev": "68979"}
{"traces": {"full": ["85.7", "0.0"]}, "rev": "68950"}
{"traces": {"full": ["85.2", "0.0"]}, "rev": "68946"}
{"traces": {"full": ["86.3", "0.0"]}, "rev": "68931"}
{"traces": {"full": ["86.4", "0.0"]}, "rev": "68911"}
{"traces": {"full": ["84.6", "0.0"]}, "rev": "68855"}
{"traces": {"full": ["89.7", "0.0"]}, "rev": "68833"}
{"traces": {"full": ["85.0", "0.0"]}, "rev": "68795"}
{"traces": {"full": ["83.5", "0.0"]}, "rev": "68736"}
{"traces": {"full": ["86.4", "0.0"]}, "rev": "68721"}
{"traces": {"full": ["86.4", "0.0"]}, "rev": "68671"}
{"traces": {"full": ["85.6", "0.0"]}, "rev": "68598"}
{"traces": {"full": ["98.9", "0.0"]}, "rev": "68569"}
{"traces": {"full": ["87.5", "0.0"]}, "rev": "68540"}
{"traces": {"full": ["85.3", "0.0"]}, "rev": "68478"}
{"traces": {"full": ["85.2", "0.0"]}, "rev": "68453"}
{"traces": {"full": ["88.0", "0.0"]}, "rev": "68409"}
{"traces": {"full": ["84.7", "0.0"]}, "rev": "68336"}
{"traces": {"full": ["86.6", "0.0"]}, "rev": "68327"}
{"traces": {"full": ["84.6", "0.0"]}, "rev": "68310"}
{"traces": {"full": ["84.1", "0.0"]}, "rev": "68309"}
{"traces": {"full": ["84.5", "0.0"]}, "rev": "68301"}
{"traces": {"full": ["85.5", "0.0"]}, "rev": "68289"}
{"traces": {"full": ["86.2", "0.0"]}, "rev": "68283"}
{"traces": {"full": ["86.3", "0.0"]}, "rev": "68243"}
{"traces": {"full": ["87.9", "0.0"]}, "rev": "68174"}
{"traces": {"full": ["82.6", "0.0"]}, "rev": "68155"}
{"traces": {"full": ["84.2", "0.0"]}, "rev": "68109"}
{"traces": {"full": ["84.1", "0.0"]}, "rev": "67983"}
{"traces": {"full": ["85.7", "0.0"]}, "rev": "67853"}
{"traces": {"full": ["85.5", "0.0"]}, "rev": "67828"}
{"traces": {"full": ["83.4", "0.0"]}, "rev": "67783"}
{"traces": {"full": ["82.7", "0.0"]}, "rev": "67697"}
{"traces": {"full": ["85.0", "0.0"]}, "rev": "67615"}
{"traces": {"full": ["86.1", "0.0"]}, "rev": "67535"}
{"traces": {"full": ["85.4", "0.0"]}, "rev": "67521"}
{"traces": {"full": ["83.1", "0.0"]}, "rev": "67500"}
{"traces": {"full": ["83.4", "0.0"]}, "rev": "67497"}
{"traces": {"full": ["85.0", "0.0"]}, "rev": "67496"}
{"traces": {"full": ["85.2", "0.0"]}, "rev": "67496"}
{"traces": {"full": ["85.2", "0.0"]}, "rev": "67493"}
{"traces": {"full": ["83.9", "0.0"]}, "rev": "67491"}
{"traces": {"full": ["86.6", "0.0"]}, "rev": "67456"}
{"traces": {"full": ["84.6", "0.0"]}, "rev": "67437"}
{"traces": {"full": ["85.3", "0.0"]}, "rev": "67426"}
{"traces": {"full": ["85.7", "0.0"]}, "rev": "67410"}
{"traces": {"full": ["82.4", "0.0"]}, "rev": "67393"}
{"traces": {"full": ["84.1", "0.0"]}, "rev": "67352"}
{"traces": {"full": ["85.4", "0.0"]}, "rev": "67268"}
{"traces": {"full": ["82.6", "0.0"]}, "rev": "67238"}
{"traces": {"full": ["85.4", "0.0"]}, "rev": "67101"}
{"traces": {"full": ["85.2", "0.0"]}, "rev": "67069"}
{"traces": {"full": ["84.9", "0.0"]}, "rev": "66958"}
{"traces": {"full": ["84.8", "0.0"]}, "rev": "66923"}
{"traces": {"full": ["83.9", "0.0"]}, "rev": "66913"}
{"traces": {"full": ["84.8", "0.0"]}, "rev": "66903"}
{"traces": {"full": ["84.5", "0.0"]}, "rev": "66888"}
{"traces": {"full": ["81.9", "0.0"]}, "rev": "66877"}
{"traces": {"full": ["82.1", "0.0"]}, "rev": "66852"}
{"traces": {"full": ["84.7", "0.0"]}, "rev": "66766"}
{"traces": {"full": ["80.8", "0.0"]}, "rev": "66747"}
{"traces": {"full": ["84.2", "0.0"]}, "rev": "66706"}
{"traces": {"full": ["81.9", "0.0"]}, "rev": "66625"}
{"traces": {"full": ["81.4", "0.0"]}, "rev": "66596"}
{"traces": {"full": ["84.7", "0.0"]}, "rev": "66552"}
{"traces": {"full": ["89.0", "0.0"]}, "rev": "66443"}
{"traces": {"full": ["84.1", "0.0"]}, "rev": "66409"}
{"traces": {"full": ["85.8", "0.0"]}, "rev": "66341"}
{"traces": {"full": ["83.6", "0.0"]}, "rev": "66275"}
{"traces": {"full": ["83.1", "0.0"]}, "rev": "66193"}
