{"traces": {"full": ["49.4", "0.0"]}, "rev": "67983"}
{"traces": {"full": ["50.2", "0.0"]}, "rev": "67783"}
{"traces": {"full": ["49.8", "0.0"]}, "rev": "67496"}
{"traces": {"full": ["49.7", "0.0"]}, "rev": "67352"}
{"traces": {"full": ["49.7", "0.0"]}, "rev": "66958"}
{"traces": {"full": ["49.7", "0.0"]}, "rev": "66923"}
{"traces": {"full": ["52.4", "0.0"]}, "rev": "66913"}
{"traces": {"full": ["49.7", "0.0"]}, "rev": "66888"}
{"traces": {"full": ["49.5", "0.0"]}, "rev": "66877"}
{"traces": {"full": ["50.1", "0.0"]}, "rev": "66766"}
{"traces": {"full": ["49.7", "0.0"]}, "rev": "66706"}
{"traces": {"full": ["49.3", "0.0"]}, "rev": "66596"}
{"traces": {"full": ["49.4", "0.0"]}, "rev": "66552"}
{"traces": {"full": ["49.5", "0.0"]}, "rev": "66443"}
{"traces": {"full": ["49.7", "0.0"]}, "rev": "66409"}
