{"traces": {"full": ["68.5", "0.0"]}, "rev": "67783"}
{"traces": {"full": ["62.7", "0.0"]}, "rev": "67352"}
{"traces": {"full": ["63.2", "0.0"]}, "rev": "66923"}
{"traces": {"full": ["63.5", "0.0"]}, "rev": "66913"}
{"traces": {"full": ["65.2", "0.0"]}, "rev": "66877"}
{"traces": {"full": ["64.1", "0.0"]}, "rev": "66766"}
{"traces": {"full": ["82.8", "0.0"]}, "rev": "66706"}
{"traces": {"full": ["64.7", "0.0"]}, "rev": "66596"}
{"traces": {"full": ["63.2", "0.0"]}, "rev": "66552"}
{"traces": {"full": ["63.6", "0.0"]}, "rev": "66443"}
{"traces": {"full": ["65.0", "0.0"]}, "rev": "66409"}
